wave/sim_wave.vcd
$version Generated by VerilatedVcd $end
$date Fri Jun 10 07:54:02 2022 $end
$timescale 1ps $end

 $scope module TOP $end
  $var wire  1 \! clock $end
  $var wire 32 `! io_debug_debugInst [31:0] $end
  $var wire 64 ^! io_debug_debugPc [63:0] $end
  $var wire 64 c! io_debug_debugdata [63:0] $end
  $var wire  5 b! io_debug_debugwaddr [4:0] $end
  $var wire  1 a! io_debug_debugwen $end
  $var wire 64 l! io_dmem_addr [63:0] $end
  $var wire  1 p! io_dmem_cen $end
  $var wire 64 n! io_dmem_rdata [63:0] $end
  $var wire 64 r! io_dmem_wdata [63:0] $end
  $var wire  1 q! io_dmem_wen $end
  $var wire 64 e! io_imem_addr [63:0] $end
  $var wire  1 h! io_imem_cen $end
  $var wire 32 g! io_imem_rdata [31:0] $end
  $var wire 64 j! io_imem_wdata [63:0] $end
  $var wire  1 i! io_imem_wen $end
  $var wire  1 ]! reset $end
  $scope module Core $end
   $var wire  7 o Alu_io_excTy [6:0] $end
   $var wire 64 p Alu_io_opVec_0 [63:0] $end
   $var wire 64 r Alu_io_opVec_1 [63:0] $end
   $var wire 64 t Alu_io_result [63:0] $end
   $var wire 32 m GprAddrGen_io_in [31:0] $end
   $var wire  5 n GprAddrGen_io_o_rd [4:0] $end
   $var wire  5 e GprAddrGen_io_o_rs1 [4:0] $end
   $var wire  5 h GprAddrGen_io_o_rs2 [4:0] $end
   $var wire 32 m If2IdInst [31:0] $end
   $var wire 64 ~ If2IdPc [63:0] $end
   $var wire 64 t! MemWbData [63:0] $end
   $var wire 64 '! alu_resultMem [63:0] $end
   $var wire  1 v! branchBus_flag $end
   $var wire 64 y! branchBus_target [63:0] $end
   $var wire  1 x cenreg $end
   $var wire  1 \! clock $end
   $var wire  3 | ctriSigs_bTy [2:0] $end
   $var wire  3 -! ctriSigs_deco_0 [2:0] $end
   $var wire  1 =! ctriSigs_deco_1 $end
   $var wire  1 { ctriSigs_deco_10 $end
   $var wire  2 } ctriSigs_deco_2 [1:0] $end
   $var wire  3 ,! ctriSigs_deco_3 [2:0] $end
   $var wire  1 >! ctriSigs_deco_6 $end
   $var wire  2 ?! ctriSigs_deco_7 [1:0] $end
   $var wire  7 G! ctriSigs_excTy [6:0] $end
   $var wire 32 .! ctriSigs_instTy [31:0] $end
   $var wire  3 F! ctriSigs_wbdSel [2:0] $end
   $var wire  1 H! ctrlSigsMem_memcen $end
   $var wire  4 I! ctrlSigsMem_memwen [3:0] $end
   $var wire  1 $! ctrlSigsMem_rfwen $end
   $var wire  3 &! ctrlSigsMem_wbdSel [2:0] $end
   $var wire  1 )! ctrlSigsWb_rfwen $end
   $var wire 32 `! dpi_inst [31:0] $end
   $var wire 64 t exBypassing_wr [63:0] $end
   $var wire  7 o exCtrlSigs_excTy [6:0] $end
   $var wire  1 :! exCtrlSigs_memcen $end
   $var wire  4 ;! exCtrlSigs_memwen [3:0] $end
   $var wire  1 "! exCtrlSigs_rfwen $end
   $var wire  3 @! exCtrlSigs_wbdSel [2:0] $end
   $var wire 32 C! exInst [31:0] $end
   $var wire 64 p exOpVec_0 [63:0] $end
   $var wire 64 r exOpVec_1 [63:0] $end
   $var wire 64 A! exPc [63:0] $end
   $var wire  5 #! exRd [4:0] $end
   $var wire 64 D! exStoreData [63:0] $end
   $var wire 64 # gpr(0) [63:0] $end
   $var wire 64 % gpr(1) [63:0] $end
   $var wire 64 7 gpr(10) [63:0] $end
   $var wire 64 9 gpr(11) [63:0] $end
   $var wire 64 ; gpr(12) [63:0] $end
   $var wire 64 = gpr(13) [63:0] $end
   $var wire 64 ? gpr(14) [63:0] $end
   $var wire 64 A gpr(15) [63:0] $end
   $var wire 64 C gpr(16) [63:0] $end
   $var wire 64 E gpr(17) [63:0] $end
   $var wire 64 G gpr(18) [63:0] $end
   $var wire 64 I gpr(19) [63:0] $end
   $var wire 64 ' gpr(2) [63:0] $end
   $var wire 64 K gpr(20) [63:0] $end
   $var wire 64 M gpr(21) [63:0] $end
   $var wire 64 O gpr(22) [63:0] $end
   $var wire 64 Q gpr(23) [63:0] $end
   $var wire 64 S gpr(24) [63:0] $end
   $var wire 64 U gpr(25) [63:0] $end
   $var wire 64 W gpr(26) [63:0] $end
   $var wire 64 Y gpr(27) [63:0] $end
   $var wire 64 [ gpr(28) [63:0] $end
   $var wire 64 ] gpr(29) [63:0] $end
   $var wire 64 ) gpr(3) [63:0] $end
   $var wire 64 _ gpr(30) [63:0] $end
   $var wire 64 a gpr(31) [63:0] $end
   $var wire 64 + gpr(4) [63:0] $end
   $var wire 64 - gpr(5) [63:0] $end
   $var wire 64 / gpr(6) [63:0] $end
   $var wire 64 1 gpr(7) [63:0] $end
   $var wire 64 3 gpr(8) [63:0] $end
   $var wire 64 5 gpr(9) [63:0] $end
   $var wire  5 k gpr_MPORT_addr [4:0] $end
   $var wire 64 i gpr_MPORT_data [63:0] $end
   $var wire  1 l gpr_MPORT_en $end
   $var wire  1 {! gpr_MPORT_mask $end
   $var wire  5 h gpr_id_rs_ret_MPORT_1_addr [4:0] $end
   $var wire 64 f gpr_id_rs_ret_MPORT_1_data [63:0] $end
   $var wire  5 e gpr_id_rs_ret_MPORT_addr [4:0] $end
   $var wire 64 c gpr_id_rs_ret_MPORT_data [63:0] $end
   $var wire 64 *! id_rs_0 [63:0] $end
   $var wire 64 8! id_rs_1 [63:0] $end
   $var wire 33 0! imm_hi_hi_hi [32:0] $end
   $var wire 11 2! imm_hi_hi_lo [10:0] $end
   $var wire  8 3! imm_hi_lo_hi [7:0] $end
   $var wire  1 4! imm_hi_lo_lo $end
   $var wire  6 5! imm_lo_hi_hi [5:0] $end
   $var wire  4 6! imm_lo_hi_lo [3:0] $end
   $var wire  1 7! imm_lo_lo $end
   $var wire  1 /! imm_sigBit $end
   $var wire 32 L! instMem [31:0] $end
   $var wire 32 Q! instWb [31:0] $end
   $var wire 32 `! io_debug_debugInst [31:0] $end
   $var wire 64 ^! io_debug_debugPc [63:0] $end
   $var wire 64 c! io_debug_debugdata [63:0] $end
   $var wire  5 b! io_debug_debugwaddr [4:0] $end
   $var wire  1 a! io_debug_debugwen $end
   $var wire 64 l! io_dmem_addr [63:0] $end
   $var wire  1 p! io_dmem_cen $end
   $var wire 64 n! io_dmem_rdata [63:0] $end
   $var wire 64 r! io_dmem_wdata [63:0] $end
   $var wire  1 q! io_dmem_wen $end
   $var wire 64 e! io_imem_addr [63:0] $end
   $var wire  1 h! io_imem_cen $end
   $var wire 32 g! io_imem_rdata [31:0] $end
   $var wire 64 j! io_imem_wdata [63:0] $end
   $var wire  1 i! io_imem_wen $end
   $var wire 64 w! jump_target [63:0] $end
   $var wire  1 <! load_stall $end
   $var wire 64 J! pcMem [63:0] $end
   $var wire 64 O! pcWb [63:0] $end
   $var wire 64 v pcreg [63:0] $end
   $var wire  5 %! rdMem [4:0] $end
   $var wire  1 ]! reset $end
   $var wire 64 y seq_pc [63:0] $end
   $var wire 64 M! storeDataMem [63:0] $end
   $var wire  5 k wbAddr [4:0] $end
   $var wire 64 i wbData [63:0] $end
   $scope module Alu $end
    $var wire 64 X! add_sub_result [63:0] $end
    $var wire 64 V! add_sub_result_ret [63:0] $end
    $var wire 32 T! add_sub_result_ret_hi [31:0] $end
    $var wire 32 U! add_sub_result_ret_lo [31:0] $end
    $var wire  7 o io_excTy [6:0] $end
    $var wire 64 p io_opVec_0 [63:0] $end
    $var wire 64 r io_opVec_1 [63:0] $end
    $var wire 64 t io_result [63:0] $end
    $var wire 64 Z! logicShiftResult [63:0] $end
    $var wire 64 R! op2 [63:0] $end
   $upscope $end
   $scope module GprAddrGen $end
    $var wire 32 m io_in [31:0] $end
    $var wire  5 n io_o_rd [4:0] $end
    $var wire  5 e io_o_rs1 [4:0] $end
    $var wire  5 h io_o_rs2 [4:0] $end
   $upscope $end
   $scope module dpi $end
    $var wire 32 `! inst [31:0] $end
   $upscope $end
  $upscope $end
 $upscope $end
$enddefinitions $end


#1
b0000000000000000000000000000000000000000000000000000000000000000 #
b0000000000000000000000000000000000000000000000000000000000000000 %
b0000000000000000000000000000000000000000000000000000000000000000 '
b0000000000000000000000000000000000000000000000000000000000000000 )
b0000000000000000000000000000000000000000000000000000000000000000 +
b0000000000000000000000000000000000000000000000000000000000000000 -
b0000000000000000000000000000000000000000000000000000000000000000 /
b0000000000000000000000000000000000000000000000000000000000000000 1
b0000000000000000000000000000000000000000000000000000000000000000 3
b0000000000000000000000000000000000000000000000000000000000000000 5
b0000000000000000000000000000000000000000000000000000000000000000 7
b0000000000000000000000000000000000000000000000000000000000000000 9
b0000000000000000000000000000000000000000000000000000000000000000 ;
b0000000000000000000000000000000000000000000000000000000000000000 =
b0000000000000000000000000000000000000000000000000000000000000000 ?
b0000000000000000000000000000000000000000000000000000000000000000 A
b0000000000000000000000000000000000000000000000000000000000000000 C
b0000000000000000000000000000000000000000000000000000000000000000 E
b0000000000000000000000000000000000000000000000000000000000000000 G
b0000000000000000000000000000000000000000000000000000000000000000 I
b0000000000000000000000000000000000000000000000000000000000000000 K
b0000000000000000000000000000000000000000000000000000000000000000 M
b0000000000000000000000000000000000000000000000000000000000000000 O
b0000000000000000000000000000000000000000000000000000000000000000 Q
b0000000000000000000000000000000000000000000000000000000000000000 S
b0000000000000000000000000000000000000000000000000000000000000000 U
b0000000000000000000000000000000000000000000000000000000000000000 W
b0000000000000000000000000000000000000000000000000000000000000000 Y
b0000000000000000000000000000000000000000000000000000000000000000 [
b0000000000000000000000000000000000000000000000000000000000000000 ]
b0000000000000000000000000000000000000000000000000000000000000000 _
b0000000000000000000000000000000000000000000000000000000000000000 a
b0000000000000000000000000000000000000000000000000000000000000000 c
b00000 e
b0000000000000000000000000000000000000000000000000000000000000000 f
b00000 h
b0000000000000000000000000000000000000000000000000000000000000000 i
b00000 k
0l
b00000000000000000000000000000000 m
b00000 n
b0000000 o
b0000000000000000000000000000000000000000000000000000000000000000 p
b0000000000000000000000000000000000000000000000000000000000000000 r
b0000000000000000000000000000000000000000000000000000000000000000 t
b0000000000000000000000000000000000000000000000000000000000000000 v
0x
b0000000000000000000000000000000000000000000000000000000000000100 y
0{
b000 |
b00 }
b0000000000000000000000000000000000000000000000000000000000000000 ~
0"!
b00000 #!
0$!
b00000 %!
b000 &!
b0000000000000000000000000000000000000000000000000000000000000000 '!
0)!
b0000000000000000000000000000000000000000000000000000000000000000 *!
b000 ,!
b000 -!
b00000000000000000000000000000000 .!
0/!
b000000000000000000000000000000000 0!
b00000000000 2!
b00000000 3!
04!
b000000 5!
b0000 6!
07!
b0000000000000000000000000000000000000000000000000000000000000000 8!
0:!
b0000 ;!
0<!
0=!
0>!
b00 ?!
b000 @!
b0000000000000000000000000000000000000000000000000000000000000000 A!
b00000000000000000000000000000000 C!
b0000000000000000000000000000000000000000000000000000000000000000 D!
b000 F!
b0000000 G!
0H!
b0000 I!
b0000000000000000000000000000000000000000000000000000000000000000 J!
b00000000000000000000000000000000 L!
b0000000000000000000000000000000000000000000000000000000000000000 M!
b0000000000000000000000000000000000000000000000000000000000000000 O!
b00000000000000000000000000000000 Q!
b0000000000000000000000000000000000000000000000000000000000000000 R!
b00000000000000000000000000000000 T!
b00000000000000000000000000000000 U!
b0000000000000000000000000000000000000000000000000000000000000000 V!
b0000000000000000000000000000000000000000000000000000000000000000 X!
b0000000000000000000000000000000000000000000000000000000000000000 Z!
1\!
1]!
b0000000000000000000000000000000000000000000000000000000000000000 ^!
b00000000000000000000000000000000 `!
0a!
b00000 b!
b0000000000000000000000000000000000000000000000000000000000000000 c!
b0000000000000000000000000000000000000000000000000000000000000000 e!
b00000000000000000000000000000000 g!
0h!
0i!
b0000000000000000000000000000000000000000000000000000000000000000 j!
b0000000000000000000000000000000000000000000000000000000000000000 l!
b0000000000000000000000000000000000000000000000000000000000000000 n!
0p!
0q!
b0000000000000000000000000000000000000000000000000000000000000000 r!
b0000000000000000000000000000000000000000000000000000000000000000 t!
0v!
b0000000000000000000000000000000000000000000000000000000000000000 w!
b0000000000000000000000000000000000000000000000000000000000000000 y!
1{!
#2
0\!
#3
b00000000000000000000000000010011 m
b0000001 o
b0000000000000000000000000000000010000000000000000000000000000000 v
b0000000000000000000000000000000010000000000000000000000000000100 y
b01 }
1"!
1$!
b001 &!
1)!
b010 ,!
b001 -!
b00000000000000000000000000000001 .!
1=!
1>!
b01 ?!
b001 @!
b00000000000000000000000000010011 C!
b001 F!
b0000001 G!
b00000000000000000000000000010011 L!
b00000000000000000000000000010011 Q!
1\!
b00000000000000000000000000010011 `!
1a!
b0000000000000000000000000000000010000000000000000000000000000000 e!
#4
0\!
#5
1\!
#6
0\!
#7
1\!
#8
0\!
#9
1\!
#10
0\!
#11
1\!
0]!
#12
0\!
#13
b00000000000000000000000000000000 m
1x
b00 }
b0000000000000000000000000000000010000000000000000000000000000000 ~
b000 ,!
b000 -!
b00000000000000000000000000000000 .!
0=!
0>!
b00 ?!
b000 F!
b0000000 G!
1\!
b00000000000000000000010000010011 g!
1h!
b0000000000000000000000000000000010000000000000000000000000000000 y!
#14
0\!
#15
b00000000000000000000010000010011 m
b01000 n
b0000000 o
b0000000000000000000000000000000010000000000000000000000000000100 v
b0000000000000000000000000000000010000000000000000000000000001000 y
b01 }
0"!
b010 ,!
b001 -!
b00000000000000000000000000000001 .!
1=!
1>!
b01 ?!
b000 @!
b0000000000000000000000000000000010000000000000000000000000000000 A!
b00000000000000000000000000000000 C!
b001 F!
b0000001 G!
1\!
b0000000000000000000000000000000010000000000000000000000000000100 e!
b00000000000000001001000100010111 g!
#16
0\!
#17
b00001 e
b00000000000000001001000100010111 m
b00010 n
b0000001 o
b0000000000000000000000000000000010000000000000000000000000001000 v
b0000000000000000000000000000000010000000000000000000000000001100 y
b10 }
b0000000000000000000000000000000010000000000000000000000000000100 ~
1"!
b01000 #!
0$!
b000 &!
b011 ,!
b101 -!
b00000000000000000000000000000101 .!
b00001001 3!
b001 @!
b00000000000000000000010000010011 C!
b0000000000000000000000000000000010000000000000000000000000000000 J!
b00000000000000000000000000000000 L!
1\!
b0000000000000000000000000000000010000000000000000000000000001000 e!
b11111111110000010000000100010011 g!
b0000000000000000000000000000000000000000000000001001000000000000 w!
b0000000000000000000000000000000010000000000000001001000000000100 y!
#18
0\!
#19
b00010 e
b11100 h
b11111111110000010000000100010011 m
b0000000000000000000000000000000010000000000000000000000000000100 p
b0000000000000000000000000000000010000000000000000000000000000100 t
b0000000000000000000000000000000010000000000000000000000000001100 v
b0000000000000000000000000000000010000000000000000000000000010000 y
b01 }
b0000000000000000000000000000000010000000000000000000000000001000 ~
b00010 #!
1$!
b01000 %!
b001 &!
0)!
b010 ,!
b001 -!
b00000000000000000000000000000001 .!
1/!
b111111111111111111111111111111111 0!
b11111111111 2!
b11111111 3!
14!
b111111 5!
b1110 6!
b0000000000000000000000000000000010000000000000000000000000000100 A!
b00000000000000001001000100010111 C!
b00000000000000000000010000010011 L!
b0000000000000000000000000000000010000000000000000000000000000000 O!
b00000000000000000000000000000000 Q!
b11111111111111111111111111111111 T!
b10000000000000000000000000000100 U!
b1111111111111111111111111111111110000000000000000000000000000100 V!
b0000000000000000000000000000000010000000000000000000000000000100 X!
1\!
b0000000000000000000000000000000010000000000000000000000000000000 ^!
b00000000000000000000000000000000 `!
0a!
b0000000000000000000000000000000010000000000000000000000000001100 e!
b00000000110000000000000011101111 g!
b0000000000000000000000000000000010000000000000000000000000000000 w!
b0000000000000000000000000000000010000000000000000000000000000100 y!
#20
0\!
#21
b00000 e
b01100 h
b01000 k
1l
b00000000110000000000000011101111 m
b00001 n
b1111111111111111111111111111111111111111111111111111111111111100 r
b0000000000000000000000000000000010000000000000000000000000000000 t
b0000000000000000000000000000000010000000000000000000000000010000 v
b0000000000000000000000000000000010000000000000000000000000010100 y
b10 }
b0000000000000000000000000000000010000000000000000000000000001100 ~
b00010 %!
b0000000000000000000000000000000010000000000000000000000000000100 '!
1)!
b100 ,!
b100 -!
b00000000000000000000000000000100 .!
0/!
b000000000000000000000000000000000 0!
b00000000000 2!
b00000000 3!
04!
b000000 5!
b0110 6!
b0000000000000000000000000000000010000000000000000000000000001000 A!
b11111111110000010000000100010011 C!
b0000000000000000000000000000000010000000000000000000000000000100 J!
b00000000000000001001000100010111 L!
b00000000000000000000010000010011 Q!
b1111111111111111111111111111111111111111111111111111111111111100 R!
b10000000000000000000000000000000 U!
b1111111111111111111111111111111110000000000000000000000000000000 V!
b0000000000000000000000000000000010000000000000000000000000000000 X!
1\!
b00000000000000000000010000010011 `!
1a!
b01000 b!
b0000000000000000000000000000000010000000000000000000000000010000 e!
b00000000000000000000010100010011 g!
b0000000000000000000000000000000010000000000000000000000000000100 l!
b0000000000000000000000000000000010000000000000000000000000000100 t!
1v!
b0000000000000000000000000000000000000000000000000000000000001100 w!
b0000000000000000000000000000000010000000000000000000000000011000 y!
#22
0\!
#23
b00000 h
b0000000000000000000000000000000010000000000000000000000000000100 i
b00010 k
b00000000000000000000000000010011 m
b00000 n
b0000000000000000000000000000000010000000000000000000000000001100 p
b0000000000000000000000000000000000000000000000000000000000000100 r
b0000000000000000000000000000000010000000000000000000000000010000 t
b0000000000000000000000000000000010000000000000000000000000011000 v
b0000000000000000000000000000000010000000000000000000000000011100 y
b01 }
b0000000000000000000000000000000000000000000000000000000000000000 ~
b00001 #!
b0000000000000000000000000000000010000000000000000000000000000000 '!
b010 ,!
b001 -!
b00000000000000000000000000000001 .!
b0000 6!
b0000000000000000000000000000000010000000000000000000000000001100 A!
b00000000110000000000000011101111 C!
b0000000000000000000000000000000010000000000000000000000000001000 J!
b11111111110000010000000100010011 L!
b0000000000000000000000000000000010000000000000000000000000000100 O!
b00000000000000001001000100010111 Q!
b0000000000000000000000000000000000000000000000000000000000000100 R!
b10000000000000000000000000010000 U!
b1111111111111111111111111111111110000000000000000000000000010000 V!
b0000000000000000000000000000000010000000000000000000000000010000 X!
1\!
b0000000000000000000000000000000010000000000000000000000000000100 ^!
b00000000000000001001000100010111 `!
b00010 b!
b0000000000000000000000000000000010000000000000000000000000000100 c!
b0000000000000000000000000000000010000000000000000000000000011000 e!
b11111111000000010000000100010011 g!
b0000000000000000000000000000000010000000000000000000000000000000 l!
b0000000000000000000000000000000010000000000000000000000000000000 t!
0v!
b0000000000000000000000000000000000000000000000000000000000000000 w!
b0000000000000000000000000000000000000000000000000000000000000000 y!
#24
0\!
#25
b0000000000000000000000000000000010000000000000000000000000000100 '
b0000000000000000000000000000000010000000000000000000000000000100 c
b00010 e
b10000 h
b0000000000000000000000000000000010000000000000000000000000000000 i
b11111111000000010000000100010011 m
b00010 n
b0000000000000000000000000000000000000000000000000000000000000000 p
b0000000000000000000000000000000000000000000000000000000000000000 r
b0000000000000000000000000000000000000000000000000000000000000000 t
b0000000000000000000000000000000010000000000000000000000000011100 v
b0000000000000000000000000000000010000000000000000000000000100000 y
b0000000000000000000000000000000010000000000000000000000000011000 ~
b00000 #!
b00001 %!
b0000000000000000000000000000000010000000000000000000000000010000 '!
b0000000000000000000000000000000010000000000000000000000000000100 *!
1/!
b111111111111111111111111111111111 0!
b11111111111 2!
b11111111 3!
14!
b111111 5!
b1000 6!
b0000000000000000000000000000000000000000000000000000000000000000 A!
b00000000000000000000000000010011 C!
b0000000000000000000000000000000010000000000000000000000000001100 J!
b00000000110000000000000011101111 L!
b0000000000000000000000000000000010000000000000000000000000001000 O!
b11111111110000010000000100010011 Q!
b0000000000000000000000000000000000000000000000000000000000000000 R!
b00000000000000000000000000000000 T!
b00000000000000000000000000000000 U!
b0000000000000000000000000000000000000000000000000000000000000000 V!
b0000000000000000000000000000000000000000000000000000000000000000 X!
1\!
b0000000000000000000000000000000010000000000000000000000000001000 ^!
b11111111110000010000000100010011 `!
b0000000000000000000000000000000010000000000000000000000000000000 c!
b0000000000000000000000000000000010000000000000000000000000011100 e!
b00000000000000000000010100010111 g!
b0000000000000000000000000000000010000000000000000000000000010000 l!
b0000000000000000000000000000000010000000000000000000000000010000 t!
b0000000000000000000000000000000001111111111111111111111111110000 w!
b0000000000000000000000000000000010000000000000000000000000001000 y!
#26
0\!
#27
b0000000000000000000000000000000010000000000000000000000000000000 '
b0000000000000000000000000000000000000000000000000000000000000000 c
b00000 e
b00000 h
b0000000000000000000000000000000010000000000000000000000000010000 i
b00001 k
b00000000000000000000010100010111 m
b01010 n
b0000000000000000000000000000000010000000000000000000000000000000 p
b1111111111111111111111111111111111111111111111111111111111110000 r
b0000000000000000000000000000000001111111111111111111111111110000 t
b0000000000000000000000000000000010000000000000000000000000100000 v
b0000000000000000000000000000000010000000000000000000000000100100 y
b10 }
b0000000000000000000000000000000010000000000000000000000000011100 ~
b00010 #!
b00000 %!
b0000000000000000000000000000000000000000000000000000000000000000 '!
b0000000000000000000000000000000000000000000000000000000000000000 *!
b011 ,!
b101 -!
b00000000000000000000000000000101 .!
0/!
b000000000000000000000000000000000 0!
b00000000000 2!
b00000000 3!
04!
b000000 5!
b0000 6!
b0000000000000000000000000000000010000000000000000000000000011000 A!
b11111111000000010000000100010011 C!
b0000000000000000000000000000000000000000000000000000000000000000 J!
b00000000000000000000000000010011 L!
b0000000000000000000000000000000010000000000000000000000000001100 O!
b00000000110000000000000011101111 Q!
b1111111111111111111111111111111111111111111111111111111111110000 R!
b01111111111111111111111111110000 U!
b0000000000000000000000000000000001111111111111111111111111110000 V!
b0000000000000000000000000000000001111111111111111111111111110000 X!
1\!
b0000000000000000000000000000000010000000000000000000000000001100 ^!
b00000000110000000000000011101111 `!
b00001 b!
b0000000000000000000000000000000010000000000000000000000000010000 c!
b0000000000000000000000000000000010000000000000000000000000100000 e!
b00000001110001010000010100010011 g!
b0000000000000000000000000000000000000000000000000000000000000000 l!
b0000000000000000000000000000000000000000000000000000000000000000 t!
b0000000000000000000000000000000000000000000000000000000000000000 w!
b0000000000000000000000000000000010000000000000000000000000011100 y!
#28
0\!
#29
b0000000000000000000000000000000010000000000000000000000000010000 %
b01010 e
b11100 h
b0000000000000000000000000000000000000000000000000000000000000000 i
b00000 k
0l
b00000001110001010000010100010011 m
b0000000000000000000000000000000010000000000000000000000000011100 p
b0000000000000000000000000000000000000000000000000000000000000000 r
b0000000000000000000000000000000010000000000000000000000000011100 t
b0000000000000000000000000000000010000000000000000000000000100100 v
b0000000000000000000000000000000010000000000000000000000000101000 y
b01 }
b0000000000000000000000000000000010000000000000000000000000100000 ~
b01010 #!
b00010 %!
b0000000000000000000000000000000001111111111111111111111111110000 '!
b010 ,!
b001 -!
b00000000000000000000000000000001 .!
b1110 6!
b0000000000000000000000000000000010000000000000000000000000011100 A!
b00000000000000000000010100010111 C!
b0000000000000000000000000000000010000000000000000000000000011000 J!
b11111111000000010000000100010011 L!
b0000000000000000000000000000000000000000000000000000000000000000 O!
b00000000000000000000000000010011 Q!
b0000000000000000000000000000000000000000000000000000000000000000 R!
b11111111111111111111111111111111 T!
b10000000000000000000000000011100 U!
b1111111111111111111111111111111110000000000000000000000000011100 V!
b0000000000000000000000000000000010000000000000000000000000011100 X!
1\!
b0000000000000000000000000000000000000000000000000000000000000000 ^!
b00000000000000000000000000010011 `!
b00000 b!
b0000000000000000000000000000000000000000000000000000000000000000 c!
b0000000000000000000000000000000010000000000000000000000000100100 e!
b00000000000100010011010000100011 g!
b0000000000000000000000000000000001111111111111111111111111110000 l!
b0000000000000000000000000000000001111111111111111111111111110000 t!
b0000000000000000000000000000000010000000000000000000000000111000 w!
b0000000000000000000000000000000010000000000000000000000000111100 y!
#30
0\!
#31
b0000000000000000000000000000000010000000000000000000000000000000 c
b00010 e
b0000000000000000000000000000000010000000000000000000000000010000 f
b00001 h
b0000000000000000000000000000000001111111111111111111111111110000 i
b00010 k
1l
b00000000000100010011010000100011 m
b01000 n
b0000000000000000000000000000000000000000000000000000000000011100 r
b0000000000000000000000000000000010000000000000000000000000111000 t
b0000000000000000000000000000000010000000000000000000000000101000 v
b0000000000000000000000000000000010000000000000000000000000101100 y
b0000000000000000000000000000000010000000000000000000000000100100 ~
b01010 %!
b0000000000000000000000000000000010000000000000000000000000011100 '!
b0000000000000000000000000000000010000000000000000000000000000000 *!
b011 -!
b00000000000000000000000000000011 .!
b0100 6!
b0000000000000000000000000000000010000000000000000000000000010000 8!
0>!
b00 ?!
b0000000000000000000000000000000010000000000000000000000000100000 A!
b00000001110001010000010100010011 C!
b000 F!
b0000000000000000000000000000000010000000000000000000000000011100 J!
b00000000000000000000010100010111 L!
b0000000000000000000000000000000010000000000000000000000000011000 O!
b11111111000000010000000100010011 Q!
b0000000000000000000000000000000000000000000000000000000000011100 R!
b10000000000000000000000000111000 U!
b1111111111111111111111111111111110000000000000000000000000111000 V!
b0000000000000000000000000000000010000000000000000000000000111000 X!
1\!
b0000000000000000000000000000000010000000000000000000000000011000 ^!
b11111111000000010000000100010011 `!
b00010 b!
b0000000000000000000000000000000001111111111111111111111111110000 c!
b0000000000000000000000000000000010000000000000000000000000101000 e!
b11111110100111111111000011101111 g!
b0000000000000000000000000000000010000000000000000000000000011100 l!
b0000000000000000000000000000000010000000000000000000000000011100 t!
b0000000000000000000000000000000001111111111111111111111111111000 w!
b0000000000000000000000000000000010000000000000000000000000101100 y!
#32
0\!
#33
b0000000000000000000000000000000001111111111111111111111111110000 '
b0000000000000000000000000000000000000000000000000000000000000000 c
b11111 e
b0000000000000000000000000000000000000000000000000000000000000000 f
b01001 h
b0000000000000000000000000000000010000000000000000000000000011100 i
b01010 k
b11111110100111111111000011101111 m
b00001 n
b0000000000000000000000000000000001111111111111111111111111110000 p
b0000000000000000000000000000000000000000000000000000000000001000 r
b0000000000000000000000000000000001111111111111111111111111111000 t
b0000000000000000000000000000000010000000000000000000000000101100 v
b0000000000000000000000000000000010000000000000000000000000110000 y
b10 }
b0000000000000000000000000000000010000000000000000000000000101000 ~
0"!
b01000 #!
b0000000000000000000000000000000010000000000000000000000000111000 '!
b0000000000000000000000000000000000000000000000000000000000000000 *!
b100 ,!
b100 -!
b00000000000000000000000000000100 .!
1/!
b111111111111111111111111111111111 0!
b11111111111 2!
b11111111 3!
14!
b111111 5!
b0000000000000000000000000000000000000000000000000000000000000000 8!
1:!
b1111 ;!
1>!
b01 ?!
b000 @!
b0000000000000000000000000000000010000000000000000000000000100100 A!
b00000000000100010011010000100011 C!
b0000000000000000000000000000000010000000000000000000000000010000 D!
b001 F!
b0000000000000000000000000000000010000000000000000000000000100000 J!
b00000001110001010000010100010011 L!
b0000000000000000000000000000000010000000000000000000000000011100 O!
b00000000000000000000010100010111 Q!
b0000000000000000000000000000000000000000000000000000000000001000 R!
b00000000000000000000000000000000 T!
b01111111111111111111111111111000 U!
b0000000000000000000000000000000001111111111111111111111111111000 V!
b0000000000000000000000000000000001111111111111111111111111111000 X!
1\!
b0000000000000000000000000000000010000000000000000000000000011100 ^!
b00000000000000000000010100010111 `!
b01010 b!
b0000000000000000000000000000000010000000000000000000000000011100 c!
b0000000000000000000000000000000010000000000000000000000000101100 e!
b00000000000001010000010100010011 g!
b0000000000000000000000000000000010000000000000000000000000111000 l!
b0000000000000000000000000000000010000000000000000000000000111000 t!
1v!
b1111111111111111111111111111111111111111111111111111111111101000 w!
b0000000000000000000000000000000010000000000000000000000000010000 y!
#34
0\!
#35
b0000000000000000000000000000000010000000000000000000000000011100 7
b00000 e
b00000 h
b0000000000000000000000000000000010000000000000000000000000111000 i
b00000000000000000000000000010011 m
b00000 n
b0000000000000000000000000000000010000000000000000000000000101000 p
b0000000000000000000000000000000000000000000000000000000000000100 r
b0000000000000000000000000000000010000000000000000000000000101100 t
b0000000000000000000000000000000010000000000000000000000000010000 v
b0000000000000000000000000000000010000000000000000000000000010100 y
b01 }
b0000000000000000000000000000000000000000000000000000000000000000 ~
1"!
b00001 #!
0$!
b01000 %!
b000 &!
b0000000000000000000000000000000001111111111111111111111111111000 '!
b010 ,!
b001 -!
b00000000000000000000000000000001 .!
0/!
b000000000000000000000000000000000 0!
b00000000000 2!
b00000000 3!
04!
b000000 5!
b0000 6!
0:!
b0000 ;!
b001 @!
b0000000000000000000000000000000010000000000000000000000000101000 A!
b11111110100111111111000011101111 C!
b0000000000000000000000000000000000000000000000000000000000000000 D!
1H!
b1111 I!
b0000000000000000000000000000000010000000000000000000000000100100 J!
b00000000000100010011010000100011 L!
b0000000000000000000000000000000010000000000000000000000000010000 M!
b0000000000000000000000000000000010000000000000000000000000100000 O!
b00000001110001010000010100010011 Q!
b0000000000000000000000000000000000000000000000000000000000000100 R!
b11111111111111111111111111111111 T!
b10000000000000000000000000101100 U!
b1111111111111111111111111111111110000000000000000000000000101100 V!
b0000000000000000000000000000000010000000000000000000000000101100 X!
1\!
b0000000000000000000000000000000010000000000000000000000000100000 ^!
b00000001110001010000010100010011 `!
b0000000000000000000000000000000010000000000000000000000000111000 c!
b0000000000000000000000000000000010000000000000000000000000010000 e!
b00000000000000000000010100010011 g!
b0000000000000000000000000000000001111111111111111111111111111000 l!
1p!
1q!
b0000000000000000000000000000000010000000000000000000000000010000 r!
b0000000000000000000000000000000001111111111111111111111111111000 t!
0v!
b0000000000000000000000000000000000000000000000000000000000000000 w!
b0000000000000000000000000000000000000000000000000000000000000000 y!
#36
0\!
