wave/sim_wave.vcd
$version Generated by VerilatedVcd $end
$date Fri May 13 10:23:31 2022 $end
$timescale 1ps $end

 $scope module TOP $end
  $var wire  1 w! clock $end
  $var wire 32 }! io_DMemio_addr [31:0] $end
  $var wire 64 ~! io_DMemio_rdata [63:0] $end
  $var wire 64 #" io_DMemio_wdata [63:0] $end
  $var wire  1 "" io_DMemio_wen $end
  $var wire 32 +" io_Deubug_Debug_inst [31:0] $end
  $var wire 64 )" io_Deubug_Debug_pc [63:0] $end
  $var wire  5 &" io_Deubug_Debug_rf_waddr [4:0] $end
  $var wire 64 '" io_Deubug_Debug_rf_wdata [63:0] $end
  $var wire  1 %" io_Deubug_Debug_rf_wen $end
  $var wire  1 y! io_Imemio_cen $end
  $var wire 32 |! io_Imemio_inst [31:0] $end
  $var wire 64 z! io_Imemio_pc [63:0] $end
  $var wire  1 x! reset $end
  $scope module core $end
   $var wire 64 f Dmemrdata_wb [63:0] $end
   $var wire  1 h ImemCenR $end
   $var wire 64 T alu_out_mem [63:0] $end
   $var wire 64 c alu_out_wb [63:0] $end
   $var wire  1 k branch_flag $end
   $var wire 64 l branch_target [63:0] $end
   $var wire  1 w! clock $end
   $var wire 32 ^ dpi_inst_in [31:0] $end
   $var wire  1 w! ex_mem_pl_clock $end
   $var wire 64 = ex_mem_pl_io_Dmem_wdata_in [63:0] $end
   $var wire 64 W ex_mem_pl_io_Dmem_wdata_o [63:0] $end
   $var wire 64 R ex_mem_pl_io_alu_out_in [63:0] $end
   $var wire 64 T ex_mem_pl_io_alu_out_o [63:0] $end
   $var wire  1 B ex_mem_pl_io_mem_wen_io_mem_wen_in $end
   $var wire  1 Y ex_mem_pl_io_mem_wen_io_mem_wen_o $end
   $var wire 32 , ex_mem_pl_io_pc_and_inst_in_inst [31:0] $end
   $var wire 64 * ex_mem_pl_io_pc_and_inst_in_pc [63:0] $end
   $var wire 32 Q ex_mem_pl_io_pc_and_inst_out_inst [31:0] $end
   $var wire 64 O ex_mem_pl_io_pc_and_inst_out_pc [63:0] $end
   $var wire  1 D ex_mem_pl_io_rf_wen_io_reg_wen_in $end
   $var wire  1 Z ex_mem_pl_io_rf_wen_io_reg_wen_o $end
   $var wire  5 : ex_mem_pl_io_wb_addr_in [4:0] $end
   $var wire  5 V ex_mem_pl_io_wb_addr_o [4:0] $end
   $var wire  2 F ex_mem_pl_io_wb_sel_io_reg_wtype_in [1:0] $end
   $var wire  2 [ ex_mem_pl_io_wb_sel_io_reg_wtype_out [1:0] $end
   $var wire  1 x! ex_mem_pl_reset $end
   $var wire  5 @ exec_fun_ex [4:0] $end
   $var wire  1 w! id_ex_pl_clock $end
   $var wire 64 ; id_ex_pl_io_Dmem_wdata_in [63:0] $end
   $var wire 64 = id_ex_pl_io_Dmem_wdata_o [63:0] $end
   $var wire  5 ? id_ex_pl_io_exeu_op [4:0] $end
   $var wire  5 @ id_ex_pl_io_exeu_op_o [4:0] $end
   $var wire  1 - id_ex_pl_io_inst_is_jump_in $end
   $var wire  1 . id_ex_pl_io_inst_is_jump_o $end
   $var wire  1 A id_ex_pl_io_mem_wen_io_mem_wen_in $end
   $var wire  1 B id_ex_pl_io_mem_wen_io_mem_wen_o $end
   $var wire 32 ' id_ex_pl_io_pc_and_inst_in_inst [31:0] $end
   $var wire 64 ( id_ex_pl_io_pc_and_inst_in_pc [63:0] $end
   $var wire 32 , id_ex_pl_io_pc_and_inst_out_inst [31:0] $end
   $var wire 64 * id_ex_pl_io_pc_and_inst_out_pc [63:0] $end
   $var wire  1 C id_ex_pl_io_reg_wen_io_reg_wen_in $end
   $var wire  1 D id_ex_pl_io_reg_wen_io_reg_wen_o $end
   $var wire 64 3 id_ex_pl_io_src_in_imm [63:0] $end
   $var wire 64 / id_ex_pl_io_src_in_src1 [63:0] $end
   $var wire 64 1 id_ex_pl_io_src_in_src2 [63:0] $end
   $var wire 64 3 id_ex_pl_io_src_out_imm [63:0] $end
   $var wire 64 5 id_ex_pl_io_src_out_src1 [63:0] $end
   $var wire 64 7 id_ex_pl_io_src_out_src2 [63:0] $end
   $var wire  5 9 id_ex_pl_io_wb_addr_in [4:0] $end
   $var wire  5 : id_ex_pl_io_wb_addr_o [4:0] $end
   $var wire  2 E id_ex_pl_io_wb_type_io_reg_wtype_in [1:0] $end
   $var wire  2 F id_ex_pl_io_wb_type_io_reg_wtype_out [1:0] $end
   $var wire  1 x! id_ex_pl_reset $end
   $var wire  1 w! if_id_pl_clock $end
   $var wire 32 |! if_id_pl_io_inst [31:0] $end
   $var wire 32 ' if_id_pl_io_inst_o [31:0] $end
   $var wire 64 # if_id_pl_io_pc [63:0] $end
   $var wire 64 % if_id_pl_io_pc_o [63:0] $end
   $var wire  1 x! if_id_pl_reset $end
   $var wire 64 3 imm_b_sext_ex [63:0] $end
   $var wire 12 n imm_i [11:0] $end
   $var wire 64 q imm_i_sext [63:0] $end
   $var wire 52 o imm_i_sext_hi [51:0] $end
   $var wire 20 #! imm_j [19:0] $end
   $var wire  1 } imm_j_hi_hi $end
   $var wire  8 ~ imm_j_hi_lo [7:0] $end
   $var wire 10 !! imm_j_lo_hi [9:0] $end
   $var wire  1 "! imm_j_lo_lo $end
   $var wire 64 &! imm_j_sext [63:0] $end
   $var wire 43 $! imm_j_sext_hi_hi [42:0] $end
   $var wire 12 t imm_s [11:0] $end
   $var wire  7 s imm_s_hi [6:0] $end
   $var wire 64 u imm_s_sext [63:0] $end
   $var wire 52 o imm_s_sext_hi [51:0] $end
   $var wire 20 w imm_u [19:0] $end
   $var wire 44 x imm_u_sext_hi [43:0] $end
   $var wire 76 z imm_u_shifted [75:0] $end
   $var wire 64 (! imm_zext [63:0] $end
   $var wire 32 ' inst_id [31:0] $end
   $var wire 64 0! inst_wb [63:0] $end
   $var wire 32 }! io_DMemio_addr [31:0] $end
   $var wire 64 ~! io_DMemio_rdata [63:0] $end
   $var wire 64 #" io_DMemio_wdata [63:0] $end
   $var wire  1 "" io_DMemio_wen $end
   $var wire 32 +" io_Deubug_Debug_inst [31:0] $end
   $var wire 64 )" io_Deubug_Debug_pc [63:0] $end
   $var wire  5 &" io_Deubug_Debug_rf_waddr [4:0] $end
   $var wire 64 '" io_Deubug_Debug_rf_wdata [63:0] $end
   $var wire  1 %" io_Deubug_Debug_rf_wen $end
   $var wire  1 y! io_Imemio_cen $end
   $var wire 32 |! io_Imemio_inst [31:0] $end
   $var wire 64 z! io_Imemio_pc [63:0] $end
   $var wire  1 . jump_flag_ex $end
   $var wire  1 w! mem_wb_pl_clock $end
   $var wire 64 ~! mem_wb_pl_io_Dmem_rdata_in [63:0] $end
   $var wire 64 f mem_wb_pl_io_Dmem_rdata_o [63:0] $end
   $var wire 64 T mem_wb_pl_io_alu_out_in [63:0] $end
   $var wire 64 c mem_wb_pl_io_alu_out_o [63:0] $end
   $var wire 32 Q mem_wb_pl_io_pc_and_inst_in_inst [31:0] $end
   $var wire 64 O mem_wb_pl_io_pc_and_inst_in_pc [63:0] $end
   $var wire 32 ^ mem_wb_pl_io_pc_and_inst_o_inst [31:0] $end
   $var wire 64 \ mem_wb_pl_io_pc_and_inst_o_pc [63:0] $end
   $var wire 64 _ mem_wb_pl_io_pc_plus4_in [63:0] $end
   $var wire 64 a mem_wb_pl_io_pc_plus4_o [63:0] $end
   $var wire  1 Z mem_wb_pl_io_rf_wen_io_reg_wen_in $end
   $var wire  1 K mem_wb_pl_io_rf_wen_io_reg_wen_o $end
   $var wire  5 V mem_wb_pl_io_wb_addr_in [4:0] $end
   $var wire  5 L mem_wb_pl_io_wb_addr_o [4:0] $end
   $var wire  2 [ mem_wb_pl_io_wb_sel_io_reg_wtype_in [1:0] $end
   $var wire  2 e mem_wb_pl_io_wb_sel_io_reg_wtype_out [1:0] $end
   $var wire  1 x! mem_wb_pl_reset $end
   $var wire 64 5 op1_ex [63:0] $end
   $var wire  2 *! op1_sel [1:0] $end
   $var wire 76 ,! op2 [75:0] $end
   $var wire 64 7 op2_ex [63:0] $end
   $var wire  3 +! op2_sel [2:0] $end
   $var wire 64 * pc_ex [63:0] $end
   $var wire 32 /! pc_id [31:0] $end
   $var wire 64 O pc_mem [63:0] $end
   $var wire 64 i pc_plus4 [63:0] $end
   $var wire 64 a pc_plus4_wb [63:0] $end
   $var wire 64 # pc_reg [63:0] $end
   $var wire  5 9 rd [4:0] $end
   $var wire  1 x! reset $end
   $var wire  1 w! rf_clock $end
   $var wire  5 G rf_io_channel_raddr1 [4:0] $end
   $var wire  5 H rf_io_channel_raddr2 [4:0] $end
   $var wire 64 I rf_io_channel_rdata1 [63:0] $end
   $var wire 64 ; rf_io_channel_rdata2 [63:0] $end
   $var wire  5 L rf_io_channel_waddr [4:0] $end
   $var wire 64 M rf_io_channel_wdata [63:0] $end
   $var wire  1 K rf_io_channel_wen $end
   $var wire  5 G rs1 [4:0] $end
   $var wire  2 e wb_sel_wb [1:0] $end
   $scope module dpi $end
    $var wire 32 ^ inst_in [31:0] $end
   $upscope $end
   $scope module ex_mem_pl $end
    $var wire 64 W Dmem_wdataR [63:0] $end
    $var wire 64 T alu_outR [63:0] $end
    $var wire  1 w! clock $end
    $var wire 32 Q instR [31:0] $end
    $var wire 64 = io_Dmem_wdata_in [63:0] $end
    $var wire 64 W io_Dmem_wdata_o [63:0] $end
    $var wire 64 R io_alu_out_in [63:0] $end
    $var wire 64 T io_alu_out_o [63:0] $end
    $var wire  1 B io_mem_wen_io_mem_wen_in $end
    $var wire  1 Y io_mem_wen_io_mem_wen_o $end
    $var wire 32 , io_pc_and_inst_in_inst [31:0] $end
    $var wire 64 * io_pc_and_inst_in_pc [63:0] $end
    $var wire 32 Q io_pc_and_inst_out_inst [31:0] $end
    $var wire 64 O io_pc_and_inst_out_pc [63:0] $end
    $var wire  1 D io_rf_wen_io_reg_wen_in $end
    $var wire  1 Z io_rf_wen_io_reg_wen_o $end
    $var wire  5 : io_wb_addr_in [4:0] $end
    $var wire  5 V io_wb_addr_o [4:0] $end
    $var wire  2 F io_wb_sel_io_reg_wtype_in [1:0] $end
    $var wire  2 [ io_wb_sel_io_reg_wtype_out [1:0] $end
    $var wire  1 Y mem_wenR $end
    $var wire 64 O pcR [63:0] $end
    $var wire  1 x! reset $end
    $var wire  1 Z rf_wenR $end
    $var wire  5 V wb_addrR [4:0] $end
    $var wire  2 [ wb_selR [1:0] $end
   $upscope $end
   $scope module id_ex_pl $end
    $var wire 64 = Dmem_wdataR [63:0] $end
    $var wire  1 w! clock $end
    $var wire  5 @ exeu_op_selR [4:0] $end
    $var wire 64 3 immR [63:0] $end
    $var wire 32 , instR [31:0] $end
    $var wire  1 . inst_is_j_flagR $end
    $var wire 64 ; io_Dmem_wdata_in [63:0] $end
    $var wire 64 = io_Dmem_wdata_o [63:0] $end
    $var wire  5 ? io_exeu_op [4:0] $end
    $var wire  5 @ io_exeu_op_o [4:0] $end
    $var wire  1 - io_inst_is_jump_in $end
    $var wire  1 . io_inst_is_jump_o $end
    $var wire  1 A io_mem_wen_io_mem_wen_in $end
    $var wire  1 B io_mem_wen_io_mem_wen_o $end
    $var wire 32 ' io_pc_and_inst_in_inst [31:0] $end
    $var wire 64 ( io_pc_and_inst_in_pc [63:0] $end
    $var wire 32 , io_pc_and_inst_out_inst [31:0] $end
    $var wire 64 * io_pc_and_inst_out_pc [63:0] $end
    $var wire  1 C io_reg_wen_io_reg_wen_in $end
    $var wire  1 D io_reg_wen_io_reg_wen_o $end
    $var wire 64 3 io_src_in_imm [63:0] $end
    $var wire 64 / io_src_in_src1 [63:0] $end
    $var wire 64 1 io_src_in_src2 [63:0] $end
    $var wire 64 3 io_src_out_imm [63:0] $end
    $var wire 64 5 io_src_out_src1 [63:0] $end
    $var wire 64 7 io_src_out_src2 [63:0] $end
    $var wire  5 9 io_wb_addr_in [4:0] $end
    $var wire  5 : io_wb_addr_o [4:0] $end
    $var wire  2 E io_wb_type_io_reg_wtype_in [1:0] $end
    $var wire  2 F io_wb_type_io_reg_wtype_out [1:0] $end
    $var wire  1 B memwenR $end
    $var wire 64 * pcR [63:0] $end
    $var wire  1 x! reset $end
    $var wire 64 5 src1R [63:0] $end
    $var wire 64 7 src2R [63:0] $end
    $var wire  5 : wb_addrR [4:0] $end
    $var wire  1 D wenR $end
    $var wire  2 F wtypeR [1:0] $end
   $upscope $end
   $scope module if_id_pl $end
    $var wire  1 w! clock $end
    $var wire 32 ' instR [31:0] $end
    $var wire 32 |! io_inst [31:0] $end
    $var wire 32 ' io_inst_o [31:0] $end
    $var wire 64 # io_pc [63:0] $end
    $var wire 64 % io_pc_o [63:0] $end
    $var wire 64 % pcR [63:0] $end
    $var wire  1 x! reset $end
   $upscope $end
   $scope module mem_wb_pl $end
    $var wire 64 f Dmem_rdataR [63:0] $end
    $var wire 64 c aluR [63:0] $end
    $var wire  1 w! clock $end
    $var wire 32 ^ instR [31:0] $end
    $var wire 64 ~! io_Dmem_rdata_in [63:0] $end
    $var wire 64 f io_Dmem_rdata_o [63:0] $end
    $var wire 64 T io_alu_out_in [63:0] $end
    $var wire 64 c io_alu_out_o [63:0] $end
    $var wire 32 Q io_pc_and_inst_in_inst [31:0] $end
    $var wire 64 O io_pc_and_inst_in_pc [63:0] $end
    $var wire 32 ^ io_pc_and_inst_o_inst [31:0] $end
    $var wire 64 \ io_pc_and_inst_o_pc [63:0] $end
    $var wire 64 _ io_pc_plus4_in [63:0] $end
    $var wire 64 a io_pc_plus4_o [63:0] $end
    $var wire  1 Z io_rf_wen_io_reg_wen_in $end
    $var wire  1 K io_rf_wen_io_reg_wen_o $end
    $var wire  5 V io_wb_addr_in [4:0] $end
    $var wire  5 L io_wb_addr_o [4:0] $end
    $var wire  2 [ io_wb_sel_io_reg_wtype_in [1:0] $end
    $var wire  2 e io_wb_sel_io_reg_wtype_out [1:0] $end
    $var wire 64 \ pcR [63:0] $end
    $var wire 64 a pcplus4R [63:0] $end
    $var wire  1 x! reset $end
    $var wire  1 K rf_wenR $end
    $var wire  5 L wb_addrR [4:0] $end
    $var wire  2 e wb_selR [1:0] $end
   $upscope $end
   $scope module rf $end
    $var wire  1 w! clock $end
    $var wire  5 G io_channel_raddr1 [4:0] $end
    $var wire  5 H io_channel_raddr2 [4:0] $end
    $var wire 64 I io_channel_rdata1 [63:0] $end
    $var wire 64 ; io_channel_rdata2 [63:0] $end
    $var wire  5 L io_channel_waddr [4:0] $end
    $var wire 64 M io_channel_wdata [63:0] $end
    $var wire  1 K io_channel_wen $end
    $var wire 64 2! rfR(0) [63:0] $end
    $var wire 64 4! rfR(1) [63:0] $end
    $var wire 64 F! rfR(10) [63:0] $end
    $var wire 64 H! rfR(11) [63:0] $end
    $var wire 64 J! rfR(12) [63:0] $end
    $var wire 64 L! rfR(13) [63:0] $end
    $var wire 64 N! rfR(14) [63:0] $end
    $var wire 64 P! rfR(15) [63:0] $end
    $var wire 64 R! rfR(16) [63:0] $end
    $var wire 64 T! rfR(17) [63:0] $end
    $var wire 64 V! rfR(18) [63:0] $end
    $var wire 64 X! rfR(19) [63:0] $end
    $var wire 64 6! rfR(2) [63:0] $end
    $var wire 64 Z! rfR(20) [63:0] $end
    $var wire 64 \! rfR(21) [63:0] $end
    $var wire 64 ^! rfR(22) [63:0] $end
    $var wire 64 `! rfR(23) [63:0] $end
    $var wire 64 b! rfR(24) [63:0] $end
    $var wire 64 d! rfR(25) [63:0] $end
    $var wire 64 f! rfR(26) [63:0] $end
    $var wire 64 h! rfR(27) [63:0] $end
    $var wire 64 j! rfR(28) [63:0] $end
    $var wire 64 l! rfR(29) [63:0] $end
    $var wire 64 8! rfR(3) [63:0] $end
    $var wire 64 n! rfR(30) [63:0] $end
    $var wire 64 p! rfR(31) [63:0] $end
    $var wire 64 :! rfR(4) [63:0] $end
    $var wire 64 <! rfR(5) [63:0] $end
    $var wire 64 >! rfR(6) [63:0] $end
    $var wire 64 @! rfR(7) [63:0] $end
    $var wire 64 B! rfR(8) [63:0] $end
    $var wire 64 D! rfR(9) [63:0] $end
    $var wire  5 L rfR_MPORT_addr [4:0] $end
    $var wire 64 M rfR_MPORT_data [63:0] $end
    $var wire  1 v! rfR_MPORT_en $end
    $var wire  1 ," rfR_MPORT_mask $end
    $var wire  5 G rfR_io_channel_rdata1_MPORT_addr [4:0] $end
    $var wire 64 r! rfR_io_channel_rdata1_MPORT_data [63:0] $end
    $var wire  5 H rfR_io_channel_rdata2_MPORT_addr [4:0] $end
    $var wire 64 t! rfR_io_channel_rdata2_MPORT_data [63:0] $end
   $upscope $end
  $upscope $end
 $upscope $end
$enddefinitions $end


#1
b0000000000000000000000000000000000000000000000000000000000000000 #
b0000000000000000000000000000000000000000000000000000000000000000 %
b00000000000000000000000000000000 '
b0000000000000000000000000000000000000000000000000000000000000000 (
b0000000000000000000000000000000000000000000000000000000000000000 *
b00000000000000000000000000000000 ,
0-
0.
b0000000000000000000000000000000000000000000000000000000000000000 /
b0000000000000000000000000000000000000000000000000000000000000000 1
b0000000000000000000000000000000000000000000000000000000000000000 3
b0000000000000000000000000000000000000000000000000000000000000000 5
b0000000000000000000000000000000000000000000000000000000000000000 7
b00000 9
b00000 :
b0000000000000000000000000000000000000000000000000000000000000000 ;
b0000000000000000000000000000000000000000000000000000000000000000 =
b00000 ?
b00000 @
0A
0B
0C
0D
b00 E
b00 F
b00000 G
b00000 H
b0000000000000000000000000000000000000000000000000000000000000000 I
0K
b00000 L
b0000000000000000000000000000000000000000000000000000000000000000 M
b0000000000000000000000000000000000000000000000000000000000000000 O
b00000000000000000000000000000000 Q
b0000000000000000000000000000000000000000000000000000000000000000 R
b0000000000000000000000000000000000000000000000000000000000000000 T
b00000 V
b0000000000000000000000000000000000000000000000000000000000000000 W
0Y
0Z
b00 [
b0000000000000000000000000000000000000000000000000000000000000000 \
b00000000000000000000000000000000 ^
b0000000000000000000000000000000000000000000000000000000000000100 _
b0000000000000000000000000000000000000000000000000000000000000000 a
b0000000000000000000000000000000000000000000000000000000000000000 c
b00 e
b0000000000000000000000000000000000000000000000000000000000000000 f
0h
b0000000000000000000000000000000000000000000000000000000000000100 i
0k
b0000000000000000000000000000000000000000000000000000000000000000 l
b000000000000 n
b0000000000000000000000000000000000000000000000000000 o
b0000000000000000000000000000000000000000000000000000000000000000 q
b0000000 s
b000000000000 t
b0000000000000000000000000000000000000000000000000000000000000000 u
b00000000000000000000 w
b00000000000000000000000000000000000000000000 x
b0000000000000000000000000000000000000000000000000000000000000000000000000000 z
0}
b00000000 ~
b0000000000 !!
0"!
b00000000000000000000 #!
b0000000000000000000000000000000000000000000 $!
b0000000000000000000000000000000000000000000000000000000000000000 &!
b0000000000000000000000000000000000000000000000000000000000000000 (!
b10 *!
b000 +!
b0000000000000000000000000000000000000000000000000000000000000000000000000000 ,!
b00000000000000000000000000000000 /!
b0000000000000000000000000000000000000000000000000000000000000000 0!
b0000000000000000000000000000000000000000000000000000000000000000 2!
b0000000000000000000000000000000000000000000000000000000000000000 4!
b0000000000000000000000000000000000000000000000000000000000000000 6!
b0000000000000000000000000000000000000000000000000000000000000000 8!
b0000000000000000000000000000000000000000000000000000000000000000 :!
b0000000000000000000000000000000000000000000000000000000000000000 <!
b0000000000000000000000000000000000000000000000000000000000000000 >!
b0000000000000000000000000000000000000000000000000000000000000000 @!
b0000000000000000000000000000000000000000000000000000000000000000 B!
b0000000000000000000000000000000000000000000000000000000000000000 D!
b0000000000000000000000000000000000000000000000000000000000000000 F!
b0000000000000000000000000000000000000000000000000000000000000000 H!
b0000000000000000000000000000000000000000000000000000000000000000 J!
b0000000000000000000000000000000000000000000000000000000000000000 L!
b0000000000000000000000000000000000000000000000000000000000000000 N!
b0000000000000000000000000000000000000000000000000000000000000000 P!
b0000000000000000000000000000000000000000000000000000000000000000 R!
b0000000000000000000000000000000000000000000000000000000000000000 T!
b0000000000000000000000000000000000000000000000000000000000000000 V!
b0000000000000000000000000000000000000000000000000000000000000000 X!
b0000000000000000000000000000000000000000000000000000000000000000 Z!
b0000000000000000000000000000000000000000000000000000000000000000 \!
b0000000000000000000000000000000000000000000000000000000000000000 ^!
b0000000000000000000000000000000000000000000000000000000000000000 `!
b0000000000000000000000000000000000000000000000000000000000000000 b!
b0000000000000000000000000000000000000000000000000000000000000000 d!
b0000000000000000000000000000000000000000000000000000000000000000 f!
b0000000000000000000000000000000000000000000000000000000000000000 h!
b0000000000000000000000000000000000000000000000000000000000000000 j!
b0000000000000000000000000000000000000000000000000000000000000000 l!
b0000000000000000000000000000000000000000000000000000000000000000 n!
b0000000000000000000000000000000000000000000000000000000000000000 p!
b0000000000000000000000000000000000000000000000000000000000000000 r!
b0000000000000000000000000000000000000000000000000000000000000000 t!
0v!
1w!
1x!
0y!
b0000000000000000000000000000000000000000000000000000000000000000 z!
b00000000000000000000000000000000 |!
b00000000000000000000000000000000 }!
b0000000000000000000000000000000000000000000000000000000000000000 ~!
0""
b0000000000000000000000000000000000000000000000000000000000000000 #"
0%"
b00000 &"
b0000000000000000000000000000000000000000000000000000000000000000 '"
b0000000000000000000000000000000000000000000000000000000000000000 )"
b00000000000000000000000000000000 +"
1,"
#2
0w!
#3
b0000000000000000000000000000000010000000000000000000000000000000 #
b0000000000000000000000000000000010000000000000000000000000000100 i
1w!
b0000000000000000000000000000000010000000000000000000000000000000 z!
#4
0w!
#5
1w!
#6
0w!
#7
1w!
#8
0w!
#9
1w!
#10
0w!
#11
1w!
0x!
#12
0w!
#13
b0000000000000000000000000000000010000000000000000000000000000000 %
b0000000000000000000000000000000010000000000000000000000000000000 (
b0000000000000000000000000000000000000000000000000000000000000100 a
1h
b10000000000000000000000000000000 /!
1w!
1y!
b11111111111111111111111111111111 |!
#14
0w!
#15
b0000000000000000000000000000000010000000000000000000000000000100 #
b11111111111111111111111111111111 '
b0000000000000000000000000000000010000000000000000000000000000000 *
b11111 9
b11111 G
b11111 H
b0000000000000000000000000000000010000000000000000000000000001000 i
b0000000000000000000000000000000010000000000000000000000000000000 l
b111111111111 n
b1111111111111111111111111111111111111111111111111111 o
b1111111111111111111111111111111111111111111111111111111111111111 q
b1111111 s
b111111111111 t
b1111111111111111111111111111111111111111111111111111111111111111 u
b11111111111111111111 w
b11111111111111111111111111111111111111111111 x
b1111111111111111111111111111111111111111111111111111111111111111000000000000 z
1}
b11111111 ~
b1111111111 !!
1"!
b11111111111111111111 #!
b1111111111111111111111111111111111111111111 $!
b1111111111111111111111111111111111111111111111111111111111111110 &!
b0000000000000000000000000000000000000000000000000000000000011111 (!
1w!
b0000000000000000000000000000000010000000000000000000000000000100 z!
b11011110101011011011111011101110 |!
#16
0w!
#17
b0000000000000000000000000000000010000000000000000000000000001000 #
b0000000000000000000000000000000010000000000000000000000000000100 %
b11011110101011011011111011101110 '
b0000000000000000000000000000000010000000000000000000000000000100 (
b11111111111111111111111111111111 ,
b11101 9
b11111 :
b11011 G
b01010 H
b0000000000000000000000000000000010000000000000000000000000000000 O
b0000000000000000000000000000000010000000000000000000000000000100 _
b0000000000000000000000000000000010000000000000000000000000001100 i
b110111101010 n
b1111111111111111111111111111111111111111111111111111110111101010 q
b1101111 s
b110111111101 t
b1111111111111111111111111111111111111111111111111111110111111101 u
b11011110101011011011 w
b1111111111111111111111111111111111111111111111011110101011011011000000000000 z
b11011011 ~
b1011110101 !!
0"!
b11101101110111101010 #!
b1111111111111111111111111111111111111111111111011011101111010100 &!
b0000000000000000000000000000000000000000000000000000000000011011 (!
b10000000000000000000000000000100 /!
1w!
b0000000000000000000000000000000010000000000000000000000000001000 z!
b00000000001000000000000100010011 |!
#18
0w!
#19
b0000000000000000000000000000000010000000000000000000000000001100 #
b0000000000000000000000000000000010000000000000000000000000001000 %
b00000000001000000000000100010011 '
b0000000000000000000000000000000010000000000000000000000000001000 (
b0000000000000000000000000000000010000000000000000000000000000100 *
b11011110101011011011111011101110 ,
b0000000000000000000000000000000000000000000000000000000000000010 1
b00010 9
b11101 :
b00001 ?
1C
b01 E
b00000 G
b00010 H
b11111111111111111111111111111111 Q
b11111 V
b0000000000000000000000000000000010000000000000000000000000000000 \
b0000000000000000000000000000000010000000000000000000000000000100 a
b0000000000000000000000000000000010000000000000000000000000010000 i
b0000000000000000000000000000000010000000000000000000000000000100 l
b000000000010 n
b0000000000000000000000000000000000000000000000000000 o
b0000000000000000000000000000000000000000000000000000000000000010 q
b0000000 s
b000000000010 t
b0000000000000000000000000000000000000000000000000000000000000010 u
b00000000001000000000 w
b00000000000000000000000000000000000000000000 x
b0000000000000000000000000000000000000000000000000000001000000000000000000000 z
0}
b00000000 ~
b0000000001 !!
b00000000000000000010 #!
b0000000000000000000000000000000000000000000 $!
b0000000000000000000000000000000000000000000000000000000000000100 &!
b0000000000000000000000000000000000000000000000000000000000000000 (!
b00 *!
b010 +!
b0000000000000000000000000000000000000000000000000000000000000000000000000010 ,!
b10000000000000000000000000001000 /!
1w!
b0000000000000000000000000000000010000000000000000000000000001100 z!
b0000000000000000000000000000000010000000000000000000000000000000 )"
#20
0w!
#21
b0000000000000000000000000000000010000000000000000000000000010000 #
b0000000000000000000000000000000010000000000000000000000000001100 %
b0000000000000000000000000000000010000000000000000000000000001100 (
b0000000000000000000000000000000010000000000000000000000000001000 *
b00000000001000000000000100010011 ,
b0000000000000000000000000000000000000000000000000000000000000010 7
b00010 :
b00001 @
1D
b01 F
b11111 L
b0000000000000000000000000000000010000000000000000000000000000100 O
b11011110101011011011111011101110 Q
b0000000000000000000000000000000000000000000000000000000000000010 R
b11101 V
b11111111111111111111111111111111 ^
b0000000000000000000000000000000010000000000000000000000000001000 _
b0000000000000000000000000000000010000000000000000000000000010100 i
b0000000000000000000000000000000010000000000000000000000000001000 l
b10000000000000000000000000001100 /!
b0000000000000000000000000000000011111111111111111111111111111111 0!
1w!
b0000000000000000000000000000000010000000000000000000000000010000 z!
b11111 &"
b11111111111111111111111111111111 +"
#22
0w!
#23
b0000000000000000000000000000000010000000000000000000000000010100 #
b0000000000000000000000000000000010000000000000000000000000010000 %
b0000000000000000000000000000000010000000000000000000000000010000 (
b0000000000000000000000000000000010000000000000000000000000001100 *
b11101 L
b0000000000000000000000000000000010000000000000000000000000001000 O
b00000000001000000000000100010011 Q
b0000000000000000000000000000000000000000000000000000000000000010 T
b00010 V
1Z
b01 [
b0000000000000000000000000000000010000000000000000000000000000100 \
b11011110101011011011111011101110 ^
b0000000000000000000000000000000010000000000000000000000000001100 _
b0000000000000000000000000000000010000000000000000000000000001000 a
b0000000000000000000000000000000010000000000000000000000000011000 i
b0000000000000000000000000000000010000000000000000000000000001100 l
b10000000000000000000000000010000 /!
b0000000000000000000000000000000011011110101011011011111011101110 0!
1w!
b0000000000000000000000000000000010000000000000000000000000010100 z!
b00000000000000000000000000000010 }!
b11101 &"
b0000000000000000000000000000000010000000000000000000000000000100 )"
b11011110101011011011111011101110 +"
#24
0w!
#25
b0000000000000000000000000000000010000000000000000000000000011000 #
b0000000000000000000000000000000010000000000000000000000000010100 %
b0000000000000000000000000000000010000000000000000000000000010100 (
b0000000000000000000000000000000010000000000000000000000000010000 *
1K
b00010 L
b0000000000000000000000000000000000000000000000000000000000000010 M
b0000000000000000000000000000000010000000000000000000000000001100 O
b0000000000000000000000000000000010000000000000000000000000001000 \
b00000000001000000000000100010011 ^
b0000000000000000000000000000000010000000000000000000000000010000 _
b0000000000000000000000000000000010000000000000000000000000001100 a
b0000000000000000000000000000000000000000000000000000000000000010 c
b01 e
b0000000000000000000000000000000010000000000000000000000000011100 i
b0000000000000000000000000000000010000000000000000000000000010000 l
b10000000000000000000000000010100 /!
b0000000000000000000000000000000000000000001000000000000100010011 0!
1v!
1w!
b0000000000000000000000000000000010000000000000000000000000011000 z!
1%"
b00010 &"
b0000000000000000000000000000000000000000000000000000000000000010 '"
b0000000000000000000000000000000010000000000000000000000000001000 )"
b00000000001000000000000100010011 +"
#26
0w!
#27
b0000000000000000000000000000000010000000000000000000000000011100 #
b0000000000000000000000000000000010000000000000000000000000011000 %
b0000000000000000000000000000000010000000000000000000000000011000 (
b0000000000000000000000000000000010000000000000000000000000010100 *
b0000000000000000000000000000000000000000000000000000000000000010 ;
b0000000000000000000000000000000010000000000000000000000000010000 O
b0000000000000000000000000000000010000000000000000000000000001100 \
b0000000000000000000000000000000010000000000000000000000000010100 _
b0000000000000000000000000000000010000000000000000000000000010000 a
b0000000000000000000000000000000010000000000000000000000000100000 i
b0000000000000000000000000000000010000000000000000000000000010100 l
b10000000000000000000000000011000 /!
b0000000000000000000000000000000000000000000000000000000000000010 6!
b0000000000000000000000000000000000000000000000000000000000000010 t!
1w!
b0000000000000000000000000000000010000000000000000000000000011100 z!
b00000000000000000000000000010011 |!
b0000000000000000000000000000000010000000000000000000000000001100 )"
#28
0w!
